…
So each country every year can either miss all data, have all data, but
there are some country only miss 2 data, Let’s review those

    data %>% filter(year == 2016) %>% right_join(data %>% group_by(country, year) %>% 
      summarise(miss = sum(is.na(suicides_no))) %>% 
      filter(!miss %in% c(0,12)), by = c("country", "year")) %>% 
      filter(is.na(suicides_no))

    ## # A tibble: 32 x 9
    ##    country  year sex   age   suicides_no population suicides_rate
    ##    <chr>   <dbl> <chr> <chr>       <dbl>      <dbl>         <dbl>
    ##  1 Armenia  2016 fema~ 5-14~          NA         NA            NA
    ##  2 Armenia  2016 male  5-14~          NA         NA            NA
    ##  3 Austria  2016 fema~ 5-14~          NA         NA            NA
    ##  4 Austria  2016 male  5-14~          NA         NA            NA
    ##  5 Croatia  2016 fema~ 5-14~          NA         NA            NA
    ##  6 Croatia  2016 male  5-14~          NA         NA            NA
    ##  7 Cyprus   2016 fema~ 5-14~          NA         NA            NA
    ##  8 Cyprus   2016 male  5-14~          NA         NA            NA
    ##  9 Czech ~  2016 fema~ 5-14~          NA         NA            NA
    ## 10 Czech ~  2016 male  5-14~          NA         NA            NA
    ## # ... with 22 more rows, and 2 more variables: generation <chr>,
    ## #   miss <int>

Data from 2016 are missing with age group 5-14 years old

Let’s find out how many missing data with each country each year

    data %>% group_by(country, year) %>% summarise(avg_rate = mean(suicides_rate)) %>% summarise(n = sum(is.na(avg_rate))) %>% arrange(desc(n))

    ## # A tibble: 101 x 2
    ##    country                    n
    ##    <chr>                  <int>
    ##  1 Mongolia                  32
    ##  2 Cabo Verde                31
    ##  3 Dominica                  31
    ##  4 Macau                     31
    ##  5 Bosnia and Herzegovina    30
    ##  6 Oman                      29
    ##  7 Saint Kitts and Nevis     29
    ##  8 San Marino                29
    ##  9 Nicaragua                 26
    ## 10 United Arab Emirates      26
    ## # ... with 91 more rows
…
